[  
    {  
        "fields":{  
            "cat_name":"Armor"
        },
        "model":"zerkerapp.itemcategories",
        "pk":1
    },
    {  
        "fields":{  
            "cat_name":"Food"
        },
        "model":"zerkerapp.itemcategories",
        "pk":2
    },
    {  
        "fields":{  
            "cat_name":"Weapons"
        },
        "model":"zerkerapp.itemcategories",
        "pk":3
    },
    {  
        "fields":{  
            "cat_name":"Rank"
        },
        "model":"zerkerapp.itemcategories",
        "pk":4
    },
    {  
        "fields":{  
            "cat_name":"Misc"
        },
        "model":"zerkerapp.itemcategories",
        "pk":5
    }
]